{
  "CNBC": {
    "domain": "cnbc.com",
    "allow_cookies": 1,
    "block_regex": "\\.tinypass\\.com\\/",
    "cs_code": [{
        "cond": "div.ArticleGate-proGate",
        "rm_elem": 1,
        "elems": [{
            "cond": "span[hidden]",
            "rm_attrib": "class"
          }, {
            "cond": "span[hidden]",
            "rm_attrib": "hidden"
          }
        ]
    }],
    "new_site": 1
  },
  "Correio da Manhã": {
    "domain": "cmjornal.pt",
    "allow_cookies": 1,
    "block_regex": "cdn\\.ampproject\\.org\\/v\\d\\/amp-(subscriptions|consent)-.+\\.js",
    "amp_unhide": 1
  },
  "Dagens ETC": {
    "domain": "etc.se",
    "allow_cookies": 1,
    "cs_code": [{
        "cond": "div.paywalled",
        "rm_attrib": "class"
    }],
    "new_site": 1
  },
  "Field & Stream": {
    "domain": "fieldandstream.com",
    "allow_cookies": 1,
    "cs_code": [{
        "cond": "div[class^=\"mailmunch-\"]",
        "rm_elem": 1
      }, {
        "cond": "html[class]",
        "rm_attrib": "class"
      }
    ],
    "new_site": 1
  },
  "La Croix": {
    "domain": "la-croix.com",
    "allow_cookies": 1,
    "block_regex": "(\\.la-croix\\.com\\/build\\/.+\\/paywall.+\\.js|cdn\\.ampproject\\.org\\/v\\d\\/amp-access-.+\\.js)"
  },
  "Philosophie Magazine": {
    "domain": "philomag.com",
    "allow_cookies": 1,
    "block_regex": "\\.poool\\.fr\\/"
  },
  "Public.fr": {
    "domain": "public.fr",
    "allow_cookies": 1,
    "block_regex": "\\.poool\\.fr\\/",
    "cs_code": [{
        "cond": "#poool-widget-content",
        "rm_elem": 1
      }, {
        "cond": ".cnt[data-poool-mode=\"hide\"]",
        "rm_attrib": "data-poool-mode"
      }
    ],
    "new_site": 1
  },
  "Record.pt": {
    "domain": "record.pt",
    "allow_cookies": 1,
    "block_regex": "cdn\\.ampproject\\.org\\/v\\d\\/amp-(subscriptions|consent)-.+\\.js",
    "amp_unhide": 1,
    "new_site": 1
  },
  "The New York Post": {
    "domain": "nypost.com",
    "allow_cookies": 1,
    "block_regex": "\\.nypost\\.com\\/zephr\\/feature"
  },
  "The Spectator (UK)": {
    "domain": "spectator.co.uk",
    "useragent": "googlebot"
  },
  "The Washington Post": {
    "domain": "washingtonpost.com",
    "allow_cookies": 1,
    "block_regex": "\\.washingtonpost\\.com\\/tetro\\/metering\\/evaluate"
  }
}
